This is BibTeX, Version 0.99d (TeX Live 2023/TeX Live for SUSE Linux)
Capacity: max_strings=200000, hash_size=200000, hash_prime=170003
The top-level auxiliary file: report-BERT-mohamed-georg.aux
The style file: ../splncs04.bst
Database file #1: ../BERT-literature.bib
Warning--to sort, need author or key in tensorflow-WordPiece
Warning--to sort, need author or key in illustrated-transformer
Warning--to sort, need author or key in tfdropoutlayer
Warning--to sort, need author or key in logloss-formula
Warning--empty booktitle in enron-email-spam-dataset
You've used 11 entries,
            2850 wiz_defined-function locations,
            650 strings with 6189 characters,
and the built_in function-call counts, 4062 in all, are:
= -- 293
> -- 113
< -- 1
+ -- 51
- -- 38
* -- 244
:= -- 489
add.period$ -- 3
call.type$ -- 11
change.case$ -- 58
chr.to.int$ -- 0
cite$ -- 16
duplicate$ -- 373
empty$ -- 446
format.name$ -- 41
if$ -- 885
int.to.chr$ -- 0
int.to.str$ -- 11
missing$ -- 75
newline$ -- 39
num.names$ -- 14
pop$ -- 207
preamble$ -- 1
purify$ -- 41
quote$ -- 0
skip$ -- 99
stack$ -- 0
substring$ -- 165
swap$ -- 162
text.length$ -- 1
text.prefix$ -- 0
top$ -- 0
type$ -- 44
warning$ -- 5
while$ -- 25
width$ -- 13
write$ -- 98
(There were 5 warnings)
