\relax 
\providecommand\hyper@newdestlabel[2]{}
\providecommand\HyperFirstAtBeginDocument{\AtBeginDocument}
\HyperFirstAtBeginDocument{\ifx\hyper@anchor\@undefined
\global\let\oldnewlabel\newlabel
\gdef\newlabel#1#2{\newlabelxx{#1}#2}
\gdef\newlabelxx#1#2#3#4#5#6{\oldnewlabel{#1}{{#2}{#3}}}
\AtEndDocument{\ifx\hyper@anchor\@undefined
\let\newlabel\oldnewlabel
\fi}
\fi}
\global\let\hyper@last\relax 
\gdef\HyperFirstAtBeginDocument#1{#1}
\providecommand\HyField@AuxAddToFields[1]{}
\providecommand\HyField@AuxAddToCoFields[2]{}
\citation{statista}
\providecommand \oddpage@label [2]{}
\@writefile{toc}{\contentsline {title}{Spam Classification with BERT: Performance Analysis of a Fine-tuned Transformer Model}{1}{chapter.1}\protected@file@percent }
\@writefile{toc}{\authcount {1}}
\@writefile{toc}{\contentsline {author}{Mohamed Mekadmini, Georg Haselbeck}{1}{chapter.1}\protected@file@percent }
\@writefile{toc}{\contentsline {section}{\numberline {1}Introduction}{1}{section.1.1}\protected@file@percent }
\citation{tensorflow-WordPiece}
\citation{bert-paper}
\@writefile{toc}{\contentsline {section}{\numberline {2}Model Architecture}{2}{section.1.2}\protected@file@percent }
\@writefile{lof}{\contentsline {figure}{\numberline {1}{\ignorespaces The model components}}{2}{figure.1.1}\protected@file@percent }
\newlabel{fig:model_components}{{1}{2}{The model components}{figure.1.1}{}}
\@writefile{toc}{\contentsline {subsection}{\numberline {2.1}Preprocessing}{2}{subsection.1.2.1}\protected@file@percent }
\citation{bert-paper}
\citation{attention2017,illustrated-transformer}
\@writefile{toc}{\contentsline {subsection}{\numberline {2.2}Bert Encoder}{3}{subsection.1.2.2}\protected@file@percent }
\@writefile{lof}{\contentsline {figure}{\numberline {2}{\ignorespaces BERT architecture}}{3}{figure.1.2}\protected@file@percent }
\newlabel{fig:bert_architecture}{{2}{3}{BERT architecture}{figure.1.2}{}}
\citation{attention2017}
\citation{illustrated-transformer}
\@writefile{lof}{\contentsline {figure}{\numberline {3}{\ignorespaces Calculating the key, query and values vectors for a single input token.}}{4}{figure.1.3}\protected@file@percent }
\newlabel{fig:key_query_value}{{3}{4}{Calculating the key, query and values vectors for a single input token}{figure.1.3}{}}
\citation{tfdropoutlayer}
\citation{tensorflow-text-bert}
\@writefile{toc}{\contentsline {subsection}{\numberline {2.3}Classifier}{5}{subsection.1.2.3}\protected@file@percent }
\@writefile{lof}{\contentsline {figure}{\numberline {4}{\ignorespaces The classifier architecture}}{5}{figure.1.4}\protected@file@percent }
\newlabel{fig:classifier_layers}{{4}{5}{The classifier architecture}{figure.1.4}{}}
\@writefile{toc}{\contentsline {section}{\numberline {3}Test Setup}{5}{section.1.3}\protected@file@percent }
\@writefile{toc}{\contentsline {subsection}{\numberline {3.1}Model Configuration: Controlled and Independent Hyperparameters}{5}{subsection.1.3.1}\protected@file@percent }
\citation{sms-spam}
\@writefile{toc}{\contentsline {subsection}{\numberline {3.2}Dataset}{6}{subsection.1.3.2}\protected@file@percent }
\newlabel{sec:dataset}{{3.2}{6}{Dataset}{subsection.1.3.2}{}}
\@writefile{lot}{\contentsline {table}{\numberline {1}{\ignorespaces Metrics on SMS test data using the reference configuration. Precision and recall refer to detection of the spam class.}}{7}{table.1.1}\protected@file@percent }
\@writefile{lof}{\contentsline {figure}{\numberline {5}{\ignorespaces Token count for ham and spam on a logarithmic scale, SMS dataset.}}{7}{figure.1.5}\protected@file@percent }
\newlabel{fig:token-count-sms}{{5}{7}{Token count for ham and spam on a logarithmic scale, SMS dataset}{figure.1.5}{}}
\citation{enron-email-spam-dataset}
\@writefile{lof}{\contentsline {figure}{\numberline {6}{\ignorespaces Token count for ham and spam on a logarithmic scale, email dataset.}}{8}{figure.1.6}\protected@file@percent }
\newlabel{fig:token-count-email}{{6}{8}{Token count for ham and spam on a logarithmic scale, email dataset}{figure.1.6}{}}
\citation{logloss-is-common,logloss-formula}
\@writefile{lot}{\contentsline {table}{\numberline {2}{\ignorespaces Metrics on email test data using the reference configuration. Precision and recall refer to detection of the spam class.}}{9}{table.1.2}\protected@file@percent }
\@writefile{toc}{\contentsline {subsection}{\numberline {3.3}Metrics}{9}{subsection.1.3.3}\protected@file@percent }
\@writefile{lof}{\contentsline {figure}{\numberline {7}{\ignorespaces Confusion Matrix}}{9}{figure.1.7}\protected@file@percent }
\@writefile{toc}{\contentsline {subsection}{\numberline {3.4}Libraries Used}{10}{subsection.1.3.4}\protected@file@percent }
\@writefile{toc}{\contentsline {subsection}{\numberline {3.5}Building The Model}{11}{subsection.1.3.5}\protected@file@percent }
\newlabel{sec:building-the-model}{{3.5}{11}{Building The Model}{subsection.1.3.5}{}}
\@writefile{toc}{\contentsline {section}{\numberline {4}Results}{12}{section.1.4}\protected@file@percent }
\@writefile{toc}{\contentsline {subsection}{\numberline {4.1}Batch Sizes}{12}{subsection.1.4.1}\protected@file@percent }
\@writefile{lof}{\contentsline {figure}{\numberline {8}{\ignorespaces Training duration for different batch sizes.}}{12}{figure.1.8}\protected@file@percent }
\newlabel{fig:batch-size-training-time}{{8}{12}{Training duration for different batch sizes}{figure.1.8}{}}
\@writefile{lof}{\contentsline {figure}{\numberline {9}{\ignorespaces Speedup compared to batch size 1.}}{13}{figure.1.9}\protected@file@percent }
\newlabel{fig:batch-size-speedup}{{9}{13}{Speedup compared to batch size 1}{figure.1.9}{}}
\@writefile{lof}{\contentsline {figure}{\numberline {10}{\ignorespaces Evaluation metrics for different batch sizes.}}{14}{figure.1.10}\protected@file@percent }
\newlabel{fig:batch-size-evaluation-metrics}{{10}{14}{Evaluation metrics for different batch sizes}{figure.1.10}{}}
\@writefile{toc}{\contentsline {subsection}{\numberline {4.2}Token Length}{14}{subsection.1.4.2}\protected@file@percent }
\@writefile{lof}{\contentsline {figure}{\numberline {11}{\ignorespaces Testing and training time for different token sizes.}}{15}{figure.1.11}\protected@file@percent }
\newlabel{fig:token-sizes-time}{{11}{15}{Testing and training time for different token sizes}{figure.1.11}{}}
\@writefile{lof}{\contentsline {figure}{\numberline {12}{\ignorespaces Approximation of the time complexity of the model with regard to token size.}}{15}{figure.1.12}\protected@file@percent }
\newlabel{fig:token-sizes-time-curves}{{12}{15}{Approximation of the time complexity of the model with regard to token size}{figure.1.12}{}}
\@writefile{lot}{\contentsline {table}{\numberline {3}{\ignorespaces Model Evaluation Metrics with Different Token Sizes}}{16}{table.1.3}\protected@file@percent }
\newlabel{tab:metrics_tokens}{{3}{16}{Model Evaluation Metrics with Different Token Sizes}{table.1.3}{}}
\@writefile{lof}{\contentsline {figure}{\numberline {13}{\ignorespaces Metrics for different token sizes for both training and testing.}}{16}{figure.1.13}\protected@file@percent }
\newlabel{fig:token-sizes}{{13}{16}{Metrics for different token sizes for both training and testing}{figure.1.13}{}}
\@writefile{toc}{\contentsline {subsection}{\numberline {4.3}Optimization Algorithms}{17}{subsection.1.4.3}\protected@file@percent }
\@writefile{lof}{\contentsline {figure}{\numberline {14}{\ignorespaces Effect of different optimization algorithms on the model.}}{17}{figure.1.14}\protected@file@percent }
\newlabel{fig:optimization-metrics}{{14}{17}{Effect of different optimization algorithms on the model}{figure.1.14}{}}
\@writefile{lot}{\contentsline {table}{\numberline {4}{\ignorespaces Training duration for different optimization algorithms.}}{17}{table.1.4}\protected@file@percent }
\newlabel{table:training_duration}{{4}{17}{Training duration for different optimization algorithms}{table.1.4}{}}
\@writefile{toc}{\contentsline {subsection}{\numberline {4.4}Number of Epochs}{18}{subsection.1.4.4}\protected@file@percent }
\@writefile{lof}{\contentsline {figure}{\numberline {15}{\ignorespaces Metrics for using different epochs.}}{18}{figure.1.15}\protected@file@percent }
\newlabel{fig:epochs-metrics}{{15}{18}{Metrics for using different epochs}{figure.1.15}{}}
\@writefile{toc}{\contentsline {subsection}{\numberline {4.5}Fine-tuning BERT}{18}{subsection.1.4.5}\protected@file@percent }
\@writefile{lot}{\contentsline {table}{\numberline {5}{\ignorespaces Training and testing durations for models}}{19}{table.1.5}\protected@file@percent }
\newlabel{tab:trainable-duration}{{5}{19}{Training and testing durations for models}{table.1.5}{}}
\@writefile{lof}{\contentsline {figure}{\numberline {16}{\ignorespaces Training with trainable=True and trainable=False}}{19}{figure.1.16}\protected@file@percent }
\newlabel{fig:fine-tuned-bert}{{16}{19}{Training with trainable=True and trainable=False}{figure.1.16}{}}
\@writefile{toc}{\contentsline {subsection}{\numberline {4.6}Combining Best Results}{20}{subsection.1.4.6}\protected@file@percent }
\@writefile{lot}{\contentsline {table}{\numberline {6}{\ignorespaces Metrics for the individually promising parameters, evaluation metrics are for the test dataset.}}{20}{table.1.6}\protected@file@percent }
\newlabel{tab:params-individual-best}{{6}{20}{Metrics for the individually promising parameters, evaluation metrics are for the test dataset}{table.1.6}{}}
\@writefile{lot}{\contentsline {table}{\numberline {7}{\ignorespaces Metrics with slightly relaxed parameters, evaluation metrics are for the test dataset.}}{21}{table.1.7}\protected@file@percent }
\newlabel{tab:params-slightly-relaxed}{{7}{21}{Metrics with slightly relaxed parameters, evaluation metrics are for the test dataset}{table.1.7}{}}
\@writefile{toc}{\contentsline {section}{\numberline {5}Conclusion}{21}{section.1.5}\protected@file@percent }
\bibstyle{../splncs04}
\bibdata{../BERT-literature.bib}
\bibcite{illustrated-transformer}{1}
\bibcite{tfdropoutlayer}{2}
\bibcite{logloss-formula}{3}
\bibcite{tensorflow-WordPiece}{4}
\bibcite{sms-spam}{5}
\bibcite{bert-paper}{6}
\bibcite{enron-email-spam-dataset}{7}
\bibcite{statista}{8}
\bibcite{tensorflow-text-bert}{9}
\bibcite{attention2017}{10}
\bibcite{logloss-is-common}{11}
\gdef \@abspage@last{22}
